*** Life<Cell> 11x7 ***

Generation = 0, Population = 17.
-0-----
-------
------0
0----0-
-0--0--
---00-0
-------
----000
-0-----
00-----
-0--0--

Generation = 4, Population = 38.
----100
---11-1
-01-1--
-0*---*
00*--10
-11-0-*
-0--0-0
-**-1-.
1.0--0-
.*10-00
1--.-1*

Generation = 8, Population = 32.
-0--1-0
00-..1.
0*-.*01
--.11-*
-*.*-.*
..1...*
101*-1*
1..0*-*
-.---.*
....-.0
....0..

Generation = 12, Population = 25.
**1.-*-
0.....*
-....--
-*.*10.
-...-*.
*......
-*..*..
...-.-.
*.*..*.
.**.**1
...***.

Generation = 16, Population = 22.
.*..-.-
-.*..*.
1...**.
-**..0.
....**.
.......
-......
...-***
..**..*
.*..**.
.**....

*** Life<Cell> 12x6 ***

Generation = 0, Population = 15.
--00--
------
---0--
-0----
-0-00-
0--000
-00---
-0----
------
-----0
------
------

Generation = 4, Population = 37.
*.*-.*
0--000
-0-0-0
-----*
0*010-
0100--
*0-1-0
*----1
-1-01-
1*--00
-10---
-0---0

Generation = 8, Population = 34.
..**..
-11*-*
-01..*
1*--1.
-..*.*
*-****
.--.--
*--0-*
-.-1-0
.*011*
-.----
.*01**

*** Life<Cell> 11x4 ***

Generation = 0, Population = 1.
----
----
----
----
----
----
----
----
0---
----
----

Generation = 4, Population = 3.
----
----
----
----
0---
----
----
----
--0-
----
0---

*** Life<Cell> 15x3 ***

Generation = 0, Population = 19.
--0
---
-0-
-00
0--
0--
-0-
0--
00-
00-
0-0
--0
---
--0
000

Generation = 5, Population = 26.
**0
*1-
1*0
-**
.**
*.-
--1
.*-
*-0
.-1
.1.
-1-
--*
**.
*1*

*** Life<Cell> 10x22 ***

Generation = 0, Population = 65.
---0------0-0---------
0--00-00--------00---0
---00---00--0--00-0--0
-0000-0-0------0000-0-
0--00-0--0000---------
----0-----------0-0--0
-----0----0-----0--0-0
-0-------000---0---0--
------000---0------0-0
0-----00--0--------0--

Generation = 4, Population = 103.
0--1---0-.11--00--0--.
--1.--*-1-1010--*.-0-.
1*--*.-0-.-01.10.*.*0.
1.--10*0.1---*.**-*--0
*0-*-0***----1010--0--
0---.1--0.**0-0-*----*
-1-1--1-1-.0--*-1101-*
.-1**-.-0**.0101*01-1-
1-1----*.*-10--100----
-.-0--*--1-*.-0-1-11-*

*** Life<Cell> 9x19 ***

Generation = 0, Population = 74.
0-0----0-0-0-00-00-
--0--0--0---0-0--00
0-00----00------00-
-00--0-00---000--00
0000-0------0-0-00-
0---000---00-0-0000
00---000------0-0--
-0-----0----0-0-000
--0-----00--0-0-00-

Generation = 3, Population = 85.
0-.*1--0*001*---*0-
1----1--*-000*1*0*1
0-..--1-1.--1--*--*
-0*00.-.1-1001-*-1*
0-1.--1-*--0.-.*1.-
-0--.-111-1.--1-0.1
01*-1-11---0--*-1-1
-10-10---*--.1--...
-110-1-0**-*-01111-

*** Life<Cell> 11x9 ***

Generation = 0, Population = 3.
0--------
---------
---------
---------
---------
0--------
---------
---------
------0--
---------
---------

Generation = 4, Population = 12.
--0-0----
1--------
*--------
---------
0-----0--
--0-0----
---------
---------
--0-----0
0--------
------0--

Generation = 8, Population = 18.
-0------0
.01------
.*11-----
*-*------
11-------
*-----.-0
0-----*--
--*------
----*----
*-.------
---------

*** Life<Cell> 7x6 ***

Generation = 0, Population = 19.
-0--00
0--0--
-00---
-0-000
-0---0
-000-0
-0--0-

Generation = 3, Population = 26.
0-0-*1
1-11-0
-0-*-0
*001-1
-0-011
-10.-.
0111--

Generation = 6, Population = 19.
.-.-*-
*0----
*--.0-
*01.**
--0-11
1.-.-.
****0-

Generation = 9, Population = 22.
**.0*1
*---*-
.1*..-
.01..*
-----*
*.0*1.
***.10

Generation = 12, Population = 14.
....**
..--.1
.-..*-
.-*.*.
0*10-.
*.-.1.
.*..-1

Generation = 15, Population = 12.
....**
..1*.*
.1.*.0
.1*...
-...1.
..0.-.
....--

Generation = 18, Population = 13.
....*.
..*..*
......
.-*...
1*.*-.
.*1*1.
...*-1

*** Life<Cell> 7x8 ***

Generation = 0, Population = 9.
-----0--
------00
--0--0--
----0---
--0-----
--0-----
------0-

Generation = 5, Population = 34.
0-110*0*
0-0--*-*
-11101-1
----0---
*0.0.110
.-*00---
00*0011-

Generation = 10, Population = 27.
.*-.1*1.
-----*..
0..--11*
0-0-.***
.*.....*
*-.111--
1*.*****

Generation = 15, Population = 19.
.*-*....
--***...
*..*.**.
.--..**.
......*.
....**-*
**..*.*.

*** Life<Cell> 12x22 ***

Generation = 0, Population = 49.
-------0---------0----
----000-0----0-----0-0
------0----------0-00-
---00-----------------
---0-----0------------
-0--00-00-0-----------
--------0-----0-----0-
000---00-------0---00-
----0--0-0---------00-
-00-------0---0---0-0-
----0-0-----0-----0---
----------------------

Generation = 5, Population = 122.
0-0--*-0----01010----*
--10*01*--1-*101--0*-0
0-*.---..1-0---.-11-1-
01---.----0----*--0--1
0.---.-*-1-0-1000-01--
.-10.*.10---*-0-001.-*
--01*-11-0.010---1--*-
-11-*-*10.---10-*---*-
-01-1.*.--0.--*-*00-.-
*.*-10-1*-0000----*1*-
-0*-*-1.*-*--0.-1-..-0
*10-00-*-0.000.*-0----

*** Life<Cell> 7x9 ***

Generation = 0, Population = 27.
-00---0-0
0-----0--
0-00-----
-0000000-
0-0---0--
-000---0-
00-00----

Generation = 5, Population = 31.
-*.*1--0.
.0-***.-*
.-0--11-1
---*----1
-01-1-10-
.0*--10*-
.0*-**-*1

*** Life<Cell> 13x3 ***

Generation = 0, Population = 8.
--0
---
---
---
-0-
---
---
0--
0--
--0
---
--0
-00

Generation = 4, Population = 19.
-1-
---
--*
0--
1-0
--0
*--
*01
.01
0--
-0*
0-*
1*-

Generation = 8, Population = 21.
0**
-1-
-..
.--
*1*
*1-
.-0
.*1
*1*
-.0
0.*
.0*
-*-

*** Life<Cell> 4x17 ***

Generation = 0, Population = 10.
---0-------0-----
------0----------
-------00-----0--
-----0--0----0-0-

Generation = 5, Population = 33.
--0----*-10---*-0
-0-01.----*0-*-1-
-001*.1*1.*1*0---
0-011--1*0-1-0---

Generation = 10, Population = 30.
-0--0**.-*--*-.*1
.**-..--*-.0-.**-
--1..**.***...--1
1*1.1-1-..-*1*0--

Generation = 15, Population = 35.
1*00****.*0-.1...
.*****1..-.*1.**.
1*.....**.***.*-.
..1.--....1*1.*-*

*** Life<Cell> 14x24 ***

Generation = 0, Population = 6.
------------------------
------------------------
-------------------0----
------------0-----------
-------------------0----
-----------0------------
------------------------
------------------------
-------0----------------
------------------------
------------------------
---------0--------------
------------------------
------------------------

Generation = 5, Population = 63.
-----------0------------
----------0-0--0-------0
--------0--0--0-------0-
---------0-.---0-0------
------01------01------0-
------0*0---.-010--0---0
-------0-0--0--0--0-0---
---0----0-0--0----------
--0-0----10*------0-0---
---0------010------0----
-----0-----0-0----------
----0-01----0-0---------
-----00-00---0----------
-------00-0-------------

Generation = 10, Population = 84.
-----0-0-0---------0-0--
----0-----0101------0---
-------1---1-----0-----0
--01--1001..-.-.--01--0-
-----------01*-*-1-----0
-0--1--.*-*...1-.1--11--
------------10-*---1-0--
---0---0---1-------0----
--------0.0*-0---0-0----
-0----001.-1-----0------
-------*-------0-1-0-0--
---10-1.0*-1--00---0----
-----.-----------1-0-0--
-0----0-01-010---0------

*** Life<Cell> 4x23 ***

Generation = 0, Population = 10.
--------------0-0------
0---0------------------
--0----------0---000---
-----------0-----------

Generation = 4, Population = 25.
--0-------0-*.---1-01--
--1-----0--*-------0---
1-0-.-1--1-----11.-*1*1
*---*--0-------0---1---

Generation = 8, Population = 41.
0-11-0*-*--*..---1-*.10
-0-------*1*00-100-*---
.01-.*-*-----*.*.*-.1..
...-.-0-**1-1*1*001.0--

Generation = 12, Population = 39.
--.*1*.**.*...---*-...1
***1.1---.-*1-0.-*0.001
.0.1*.1.1*-10...*.-***.
...-.-0-..*-*.-*-....10

Generation = 16, Population = 24.
--..**........1-**-....
...**.-.-.1.1--*1***--1
.-.*..*...--..*...-**..
...-**.-...-..-.0....1-

Generation = 20, Population = 34.
-0*****.......*-..1***.
.*...**.-.1.*...*.**0*-
.1**.**...--...*.*....*
...-*..-...-..-.-.****-
